{
  "builders": [
    {
      "boot_command": [
        "<esc><wait>",
        "<esc><wait>",
        "<enter><wait>",
        "/install/vmlinuz<wait>",
        " auto<wait>",
        " console-setup/ask_detect=false<wait>",
        " console-setup/layoutcode=us<wait>",
        " console-setup/modelcode=pc105<wait>",
        " debconf/frontend=noninteractive<wait>",
        " debian-installer=en_US<wait>",
        " fb=false<wait>",
        " initrd=/install/initrd.gz<wait>",
        " kbd-chooser/method=us<wait>",
        " keyboard-configuration/layout=USA<wait>",
        " keyboard-configuration/variant=USA<wait>",
        " locale=en_US<wait>",
        " netcfg/get_domain=vm<wait>",
        " netcfg/get_hostname=vagrant<wait>",
        " noapic<wait>",
        " preseed/url=http://{{ .HTTPIP }}:{{ .HTTPPort }}/{{user `preseed_path`}}<wait>",
        " -- <wait>",
        "<enter><wait>"
      ],
      "boot_wait": "10s",
      "disk_size": 10240,
      "guest_additions_path": "VBoxGuestAdditions_{{.Version}}.iso",
      "guest_os_type": "Ubuntu_64",
      "hard_drive_interface": "sata",
      "headless": "{{ user `headless` }}",
      "http_directory": "http",
      "iso_checksum": "{{user `iso_checksum`}}",
      "iso_checksum_type": "{{user `iso_checksum_type`}}",
      "iso_url": "{{user `mirror`}}/{{user `mirror_directory`}}/{{user `iso_name`}}",
      "output_directory": "packer-{{user `template`}}-virtualbox",
      "shutdown_command": "echo 'vagrant' | sudo -S shutdown -P now",
      "ssh_password": "vagrant",
      "ssh_port": 22,
      "ssh_username": "vagrant",
      "ssh_wait_timeout": "10000s",
      "type": "virtualbox-iso",
      "vboxmanage": [
        [
          "modifyvm",
          "{{.Name}}",
          "--memory",
          "512"
        ],
        [
          "modifyvm",
          "{{.Name}}",
          "--cpus",
          "1"
        ]
      ],
      "virtualbox_version_file": ".vbox_version",
      "vm_name": "{{ user `template` }}"
    },
    {
      "boot_command": [
        "<esc><wait>",
        "<esc><wait>",
        "<enter><wait>",
        "/install/vmlinuz<wait>",
        " auto<wait>",
        " console-setup/ask_detect=false<wait>",
        " console-setup/layoutcode=us<wait>",
        " console-setup/modelcode=pc105<wait>",
        " debconf/frontend=noninteractive<wait>",
        " debian-installer=en_US<wait>",
        " fb=false<wait>",
        " initrd=/install/initrd.gz<wait>",
        " kbd-chooser/method=us<wait>",
        " keyboard-configuration/layout=USA<wait>",
        " keyboard-configuration/variant=USA<wait>",
        " locale=en_US<wait>",
        " netcfg/get_domain=vm<wait>",
        " netcfg/get_hostname=vagrant<wait>",
        " noapic<wait>",
        " preseed/url=http://{{ .HTTPIP }}:{{ .HTTPPort }}/{{user `preseed_path`}}<wait>",
        " -- <wait>",
        "<enter><wait>"
      ],
      "boot_wait": "10s",
      "disk_size": 10240,
      "guest_os_type": "ubuntu-64",
      "headless": "{{ user `headless` }}",
      "http_directory": "http",
      "iso_checksum": "{{user `iso_checksum`}}",
      "iso_checksum_type": "{{user `iso_checksum_type`}}",
      "iso_url": "{{user `mirror`}}/{{user `mirror_directory`}}/{{user `iso_name`}}",
      "output_directory": "packer-{{user `template`}}-vmware",
      "shutdown_command": "echo 'vagrant' | sudo -S shutdown -P now",
      "ssh_password": "vagrant",
      "ssh_port": 22,
      "ssh_username": "vagrant",
      "ssh_wait_timeout": "10000s",
      "tools_upload_flavor": "linux",
      "type": "vmware-iso",
      "vm_name": "{{ user `template` }}",
      "vmx_data": {
        "cpuid.coresPerSocket": "1",
        "memsize": "512",
        "numvcpus": "1"
      }
    },
    {
      "boot_command": [
        "<esc><wait>",
        "<esc><wait>",
        "<enter><wait>",
        "/install/vmlinuz<wait>",
        " auto<wait>",
        " console-setup/ask_detect=false<wait>",
        " console-setup/layoutcode=us<wait>",
        " console-setup/modelcode=pc105<wait>",
        " debconf/frontend=noninteractive<wait>",
        " debian-installer=en_US<wait>",
        " fb=false<wait>",
        " initrd=/install/initrd.gz<wait>",
        " kbd-chooser/method=us<wait>",
        " keyboard-configuration/layout=USA<wait>",
        " keyboard-configuration/variant=USA<wait>",
        " locale=en_US<wait>",
        " netcfg/get_domain=vm<wait>",
        " netcfg/get_hostname=vagrant<wait>",
        " noapic<wait>",
        " preseed/url=http://{{ .HTTPIP }}:{{ .HTTPPort }}/{{user `preseed_path`}}<wait>",
        " -- <wait>",
        "<enter><wait>"
      ],
      "boot_wait": "10s",
      "disk_size": 10240,
      "guest_os_type": "ubuntu",
      "http_directory": "http",
      "iso_checksum": "{{user `iso_checksum`}}",
      "iso_checksum_type": "{{user `iso_checksum_type`}}",
      "iso_url": "{{user `mirror`}}/{{user `mirror_directory`}}/{{user `iso_name`}}",
      "output_directory": "packer-{{user `template`}}-parallels",
      "parallels_tools_flavor": "lin",
      "prlctl": [
        [
          "set",
          "{{.Name}}",
          "--memsize",
          "512"
        ],
        [
          "set",
          "{{.Name}}",
          "--cpus",
          "1"
        ]
      ],
      "prlctl_version_file": ".prlctl_version",
      "shutdown_command": "echo 'vagrant' | sudo -S shutdown -P now",
      "ssh_password": "vagrant",
      "ssh_port": 22,
      "ssh_username": "vagrant",
      "ssh_wait_timeout": "10000s",
      "type": "parallels-iso",
      "vm_name": "{{ user `template` }}"
    },
    {
      "boot_command": [
        "<esc><wait>",
        "<esc><wait>",
        "<enter><wait>",
        "/install/vmlinuz<wait>",
        " auto<wait>",
        " console-setup/ask_detect=false<wait>",
        " console-setup/layoutcode=us<wait>",
        " console-setup/modelcode=pc105<wait>",
        " debconf/frontend=noninteractive<wait>",
        " debian-installer=en_US<wait>",
        " fb=false<wait>",
        " initrd=/install/initrd.gz<wait>",
        " kbd-chooser/method=us<wait>",
        " keyboard-configuration/layout=USA<wait>",
        " keyboard-configuration/variant=USA<wait>",
        " locale=en_US<wait>",
        " netcfg/get_domain=vm<wait>",
        " netcfg/get_hostname=vagrant<wait>",
        " noapic<wait>",
        " preseed/url=http://{{ .HTTPIP }}:{{ .HTTPPort }}/{{user `preseed_path`}}<wait>",
        " -- <wait>",
        "<enter><wait>"
      ],
      "boot_wait": "10s",
      "disk_size": 10240,
      "http_directory": "http",
      "iso_checksum": "{{user `iso_checksum`}}",
      "iso_checksum_type": "{{user `iso_checksum_type`}}",
      "iso_url": "{{user `mirror`}}/{{user `mirror_directory`}}/{{user `iso_name`}}",
      "output_directory": "packer-{{user `template`}}-qemu",
      "shutdown_command": "echo 'vagrant'|sudo -S shutdown -P now",
      "ssh_password": "vagrant",
      "ssh_port": 22,
      "ssh_username": "vagrant",
      "ssh_wait_timeout": "10000s",
      "type": "qemu",
      "vm_name": "{{ user `template` }}"
    }
  ],
  "post-processors": [
    {
      "output": "builds/{{user `box_basename`}}.{{.Provider}}.box",
      "type": "vagrant"
    }
  ],
  "provisioners": [
    {
      "destination": "/tmp/bento-metadata.json",
      "source": "{{user `metadata`}}",
      "type": "file"
    },
    {
      "environment_vars": [
        "HOME_DIR=/home/vagrant",
        "http_proxy={{user `http_proxy`}}",
        "https_proxy={{user `https_proxy`}}",
        "no_proxy={{user `no_proxy`}}"
      ],
      "execute_command": "echo 'vagrant' | {{.Vars}} sudo -S -E sh -eux '{{.Path}}'",
      "scripts": [
        "scripts/common/metadata.sh",
        "scripts/ubuntu/update.sh",
        "scripts/common/sshd.sh",
        "scripts/ubuntu/networking.sh",
        "scripts/ubuntu/sudoers.sh",
        "scripts/ubuntu/vagrant.sh",
        "scripts/common/vmtools.sh",
        "scripts/ubuntu/cleanup.sh",
        "scripts/common/minimize.sh"
      ],
      "type": "shell"
    }
  ],
  "variables": {
    "box_basename": "ubuntu-14.04",
    "build_timestamp": "{{isotime \"20060102150405\"}}",
    "git_revision": "__unknown_git_revision__",
    "headless": "",
    "http_proxy": "{{env `http_proxy`}}",
    "https_proxy": "{{env `https_proxy`}}",
    "iso_checksum": "a3b345908a826e262f4ea1afeb357fd09ec0558cf34e6c9112cead4bb55ccdfb",
    "iso_checksum_type": "sha256",
    "iso_name": "ubuntu-14.04.3-server-amd64.iso",
    "metadata": "floppy/dummy_metadata.json",
    "mirror": "http://releases.ubuntu.com",
    "mirror_directory": "14.04.3",
    "name": "ubuntu-14.04",
    "no_proxy": "{{env `no_proxy`}}",
    "preseed_path": "ubuntu-14.04/preseed.cfg",
    "template": "ubuntu-14.04-amd64",
    "version": "2.1.TIMESTAMP"
  }
}

